{
    "HorizonLayout": [
        {
            "parallax": false,
            "doubleTapToFullScreen": false,
            "enableBackground": false,
            "isHorizontal": false,
            "fit": "fitWidth",
            "isBlur": false,
            "parallaxImageRatio": 1.2,
            "showNumber": false,
            "design": "swiper",
            "showBackground": false,
            "radius": 20,
            "enableTimeIndicator": true,
            "intervalTime": 1,
            "padding": 0,
            "upHeight": 0,
            "pageIndicatorType": "line",
            "isSlider": true,
            "isSoundOn": false,
            "enableParallax": false,
            "autoPlayVideo": false,
            "layout": "bannerImage",
            "marginBottom": 0,
            "autoPlay": true,
            "items": [
                {
                    "image": "https://i.imgur.com/OZlnwlu.png",
                    "bannerWithProduct": false,
                    "name": "",
                    "showSubcategory": false,
                    "video": "",
                    "category": "-1",
                    "defaultShowProduct": false,
                    "products": []
                },
                {
                    "image": "https://i.imgur.com/ZlKNPGz.png",
                    "bannerWithProduct": false,
                    "showSubcategory": false,
                    "video": "",
                    "category": "gid://shopify/Collection/166270763147",
                    "defaultShowProduct": false,
                    "products": []
                },
                {
                    "image": "https://i.imgur.com/wdyfAHG.gif",
                    "bannerWithProduct": false,
                    "showSubcategory": false,
                    "video": "",
                    "category": "gid://shopify/Collection/232555086016",
                    "defaultShowProduct": false,
                    "products": []
                },
                {
                    "image": "https://i.imgur.com/eRDQD7d.png",
                    "bannerWithProduct": false,
                    "showSubcategory": false,
                    "video": "",
                    "category": "gid://shopify/Collection/419261186260",
                    "defaultShowProduct": false,
                    "products": []
                },
                {
                    "image": "https://i.imgur.com/FawJXOb.png",
                    "bannerWithProduct": false,
                    "showSubcategory": false,
                    "video": "",
                    "category": "gid://shopify/Collection/282716733632",
                    "defaultShowProduct": false,
                    "products": []
                }
            ],
            "marginTop": 0
        },
        {
            "parallax": false,
            "enableParallax": false,
            "enableBackground": false,
            "isHorizontal": false,
            "marginLeft": 0,
            "layout": "bannerImage",
            "fit": "fitWidth",
            "marginRight": 0,
            "parallaxImageRatio": 1.2,
            "design": "static",
            "marginBottom": 0,
            "items": [
                {
                    "image": "https://i.imgur.com/40rbfeW.png",
                    "padding": 15,
                    "bannerWithProduct": false,
                    "showSubcategory": false,
                    "video": "",
                    "radius": 9,
                    "category": "gid://shopify/Collection/417935622356",
                    "defaultShowProduct": false,
                    "products": []
                }
            ],
            "marginTop": 0,
            "height": 0.1
        },
        {
            "showCartIcon": true,
            "imageBoxfit": "cover",
            "showStockStatus": true,
            "featured": false,
            "hideEmptyProductLayout": false,
            "showCountDown": false,
            "parallax": false,
            "columns": 0,
            "hideStore": false,
            "vPadding": 0,
            "showQuantity": false,
            "showHeart": false,
            "hMargin": 6,
            "parallaxImageRatio": 1.2,
            "showCartButtonWithQuantity": false,
            "vMargin": 0,
            "showOnlyImage": false,
            "onSale": false,
            "productType": false,
            "image": "",
            "showCategory": false,
            "productListItemHeight": 125,
            "showCartIconColor": false,
            "useSort": false,
            "hPadding": 0,
            "hidePrice": false,
            "rows": 1,
            "enableBottomAddToCart": false,
            "layout": "fourColumn",
            "enableRating": true,
            "imageRatio": 1.2,
            "useCircularRadius": true,
            "hideTitle": false,
            "borderRadius": 3,
            "cardDesign": "simpleCard",
            "backgroundRadius": 10,
            "isSnapping": false,
            "showCartButton": false,
            "name": "بن وهيل",
            "cartIconRadius": 9,
            "enableAutoSliding": false,
            "category": "gid://shopify/Collection/413399974100",
            "hideEmptyProductListRating": false
        },
        {
            "boxShadow": null,
            "parallax": false,
            "enableParallax": false,
            "enableBackground": false,
            "isHorizontal": false,
            "marginLeft": 0,
            "layout": "bannerImage",
            "fit": "fitWidth",
            "marginRight": 0,
            "parallaxImageRatio": 1.2,
            "design": "static",
            "marginBottom": 0,
            "items": [
                {
                    "image": "https://i.imgur.com/PrFZ0Hw.png",
                    "padding": 15,
                    "bannerWithProduct": false,
                    "showSubcategory": false,
                    "video": "",
                    "category": "gid://shopify/Collection/412198404308",
                    "defaultShowProduct": false,
                    "products": []
                }
            ],
            "marginTop": 20,
            "height": 0.2
        },
        {
            "boxShadow": null,
            "parallax": false,
            "enableParallax": false,
            "enableBackground": false,
            "isHorizontal": false,
            "marginLeft": 0,
            "layout": "bannerImage",
            "fit": "fitWidth",
            "marginRight": 0,
            "parallaxImageRatio": 1.2,
            "design": "static",
            "marginBottom": 0,
            "items": [
                {
                    "image": "https://i.imgur.com/QEFWII2.png",
                    "padding": 15,
                    "bannerWithProduct": false,
                    "showSubcategory": false,
                    "video": "",
                    "category": "gid://shopify/Collection/264948285632",
                    "defaultShowProduct": false,
                    "products": []
                }
            ],
            "marginTop": 20,
            "height": 0.2
        },
        {
            "showCartIcon": true,
            "imageBoxfit": "cover",
            "showStockStatus": true,
            "featured": false,
            "hideEmptyProductLayout": false,
            "showCountDown": false,
            "parallax": false,
            "columns": 0,
            "hideStore": false,
            "vPadding": 0,
            "showQuantity": false,
            "showHeart": false,
            "hMargin": 6,
            "parallaxImageRatio": 1.2,
            "showCartButtonWithQuantity": false,
            "vMargin": 0,
            "showOnlyImage": false,
            "onSale": false,
            "productType": false,
            "image": "",
            "showCategory": false,
            "productListItemHeight": 125,
            "showCartIconColor": false,
            "useSort": false,
            "hPadding": 0,
            "hidePrice": false,
            "rows": 1,
            "enableBottomAddToCart": false,
            "layout": "fourColumn",
            "enableRating": false,
            "imageRatio": 1.2,
            "useCircularRadius": true,
            "hideTitle": false,
            "borderRadius": 10,
            "cardDesign": "simpleCard",
            "backgroundRadius": 10,
            "isSnapping": false,
            "showCartButton": false,
            "name": "الشاي",
            "cartIconRadius": 9,
            "enableAutoSliding": false,
            "category": "gid://shopify/Collection/168103706763",
            "hideEmptyProductListRating": false
        },
        {
            "showCartIcon": true,
            "imageBoxfit": "cover",
            "showStockStatus": true,
            "featured": false,
            "hideEmptyProductLayout": false,
            "showCountDown": false,
            "parallax": false,
            "columns": 0,
            "hideStore": false,
            "vPadding": 0,
            "showQuantity": false,
            "showHeart": false,
            "hMargin": 6,
            "parallaxImageRatio": 1.2,
            "showCartButtonWithQuantity": false,
            "vMargin": 0,
            "showOnlyImage": false,
            "onSale": false,
            "productType": false,
            "image": "",
            "showCategory": false,
            "productListItemHeight": 125,
            "showCartIconColor": false,
            "useSort": false,
            "hPadding": 0,
            "hidePrice": false,
            "rows": 1,
            "enableBottomAddToCart": false,
            "layout": "fourColumn",
            "enableRating": false,
            "imageRatio": 1.2,
            "useCircularRadius": true,
            "hideTitle": false,
            "borderRadius": 10,
            "cardDesign": "simpleCard",
            "backgroundRadius": 10,
            "isSnapping": false,
            "showCartButton": false,
            "name": "غواري الشاي",
            "cartIconRadius": 9,
            "enableAutoSliding": false,
            "category": "gid://shopify/Collection/168106721419",
            "hideEmptyProductListRating": false
        },
        {
            "boxShadow": null,
            "parallax": false,
            "enableParallax": false,
            "enableBackground": false,
            "isHorizontal": false,
            "marginLeft": 0,
            "layout": "bannerImage",
            "fit": "fitWidth",
            "marginRight": 0,
            "parallaxImageRatio": 1.2,
            "design": "static",
            "marginBottom": 0,
            "items": [
                {
                    "image": "https://i.imgur.com/6S5AmOv.png",
                    "padding": 15,
                    "bannerWithProduct": false,
                    "showSubcategory": false,
                    "video": "",
                    "category": "gid://shopify/Collection/413400563924",
                    "defaultShowProduct": false,
                    "products": []
                }
            ],
            "marginTop": 20,
            "height": 0.2
        },
        {
            "parallax": false,
            "enableParallax": false,
            "enableBackground": false,
            "isHorizontal": false,
            "marginLeft": 0,
            "layout": "bannerImage",
            "fit": "fitWidth",
            "marginRight": 0,
            "parallaxImageRatio": 1.2,
            "design": "static",
            "marginBottom": 0,
            "items": [
                {
                    "image": "https://i.imgur.com/DvVGUtM.jpeg",
                    "padding": 15,
                    "bannerWithProduct": false,
                    "showSubcategory": false,
                    "video": "",
                    "category": "gid://shopify/Collection/279753130176",
                    "defaultShowProduct": false,
                    "products": []
                }
            ],
            "marginTop": 20,
            "height": 0.2
        },
        {
            "parallax": false,
            "enableParallax": false,
            "enableBackground": false,
            "isHorizontal": false,
            "marginLeft": 0,
            "layout": "bannerImage",
            "fit": "fitWidth",
            "marginRight": 0,
            "parallaxImageRatio": 1.2,
            "design": "static",
            "marginBottom": 0,
            "items": [
                {
                    "image": "https://i.imgur.com/ZfqIlKd.png",
                    "padding": 15,
                    "bannerWithProduct": false,
                    "showSubcategory": false,
                    "video": "",
                    "category": "gid://shopify/Collection/413402398932",
                    "defaultShowProduct": false,
                    "products": []
                }
            ],
            "marginTop": 20,
            "height": 0.2
        },
        {
            "parallax": false,
            "enableParallax": false,
            "enableBackground": false,
            "isHorizontal": false,
            "marginLeft": 0,
            "layout": "bannerImage",
            "fit": "fitWidth",
            "marginRight": 0,
            "parallaxImageRatio": 1.2,
            "design": "static",
            "marginBottom": 0,
            "items": [
                {
                    "image": "https://i.imgur.com/TWywn9u.gif",
                    "padding": 15,
                    "bannerWithProduct": false,
                    "showSubcategory": false,
                    "video": "",
                    "category": "gid://shopify/Collection/411201503444",
                    "defaultShowProduct": false,
                    "products": []
                }
            ],
            "marginTop": 20,
            "height": 0.2
        },
        {
            "showCartIcon": true,
            "imageBoxfit": "cover",
            "showStockStatus": true,
            "featured": false,
            "hideEmptyProductLayout": false,
            "showCountDown": false,
            "parallax": false,
            "columns": 0,
            "hideStore": false,
            "vPadding": 0,
            "showQuantity": false,
            "showHeart": false,
            "hMargin": 6,
            "parallaxImageRatio": 1.2,
            "showCartButtonWithQuantity": false,
            "vMargin": 0,
            "showOnlyImage": false,
            "onSale": false,
            "productType": false,
            "image": "",
            "showCategory": false,
            "productListItemHeight": 125,
            "showCartIconColor": false,
            "useSort": false,
            "hPadding": 0,
            "hidePrice": false,
            "rows": 1,
            "enableBottomAddToCart": false,
            "layout": "fourColumn",
            "enableRating": true,
            "imageRatio": 1.2,
            "useCircularRadius": true,
            "hideTitle": false,
            "borderRadius": 3,
            "cardDesign": "simpleCard",
            "backgroundRadius": 10,
            "isSnapping": false,
            "showCartButton": false,
            "name": "وصل حديثا",
            "cartIconRadius": 9,
            "enableAutoSliding": false,
            "category": "gid://shopify/Collection/419575759060",
            "hideEmptyProductListRating": false
        },
        {
            "parallax": false,
            "enableParallax": false,
            "enableBackground": false,
            "isHorizontal": false,
            "marginLeft": 0,
            "layout": "bannerImage",
            "fit": "fitWidth",
            "marginRight": 0,
            "parallaxImageRatio": 1.2,
            "design": "static",
            "marginBottom": 0,
            "items": [
                {
                    "image": "https://i.imgur.com/y2TVddN.png",
                    "padding": 15,
                    "bannerWithProduct": false,
                    "showSubcategory": false,
                    "video": "",
                    "category": "gid://shopify/Collection/412460253396",
                    "defaultShowProduct": false,
                    "products": []
                }
            ],
            "marginTop": 20,
            "height": 0.2
        },
        {
            "boxShadow": null,
            "parallax": false,
            "enableParallax": false,
            "enableBackground": false,
            "isHorizontal": false,
            "marginLeft": 0,
            "layout": "bannerImage",
            "fit": "fitWidth",
            "marginRight": 0,
            "parallaxImageRatio": 1.2,
            "design": "static",
            "marginBottom": 0,
            "items": [
                {
                    "image": "https://i.imgur.com/mXbhumR.png",
                    "padding": 15,
                    "bannerWithProduct": false,
                    "showSubcategory": false,
                    "video": "",
                    "category": "gid://shopify/Collection/412011757780",
                    "defaultShowProduct": false,
                    "products": []
                }
            ],
            "marginTop": 20,
            "height": 0.2
        },
        {
            "parallax": false,
            "enableParallax": false,
            "enableBackground": false,
            "isHorizontal": false,
            "marginLeft": 0,
            "layout": "bannerImage",
            "fit": "fitWidth",
            "marginRight": 0,
            "parallaxImageRatio": 1.2,
            "design": "static",
            "marginBottom": 0,
            "items": [
                {
                    "image": "https://i.imgur.com/EDM4hP7.png",
                    "padding": 15,
                    "bannerWithProduct": false,
                    "showSubcategory": false,
                    "video": "",
                    "category": "gid://shopify/Collection/413064495316",
                    "defaultShowProduct": false,
                    "products": []
                }
            ],
            "marginTop": 20,
            "height": 0.2
        },
        {
            "parallax": false,
            "enableParallax": false,
            "enableBackground": false,
            "isHorizontal": false,
            "marginLeft": 0,
            "layout": "bannerImage",
            "fit": "fitWidth",
            "marginRight": 0,
            "parallaxImageRatio": 1.2,
            "design": "static",
            "marginBottom": 0,
            "items": [
                {
                    "image": "https://i.imgur.com/jAuhnXU.gif",
                    "padding": 15,
                    "bannerWithProduct": false,
                    "showSubcategory": false,
                    "video": "",
                    "category": "gid://shopify/Collection/412925296852",
                    "defaultShowProduct": false,
                    "products": []
                }
            ],
            "marginTop": 20,
            "height": 0.2
        }
    ],
    "Setting": {
        "TabBarConfig": null,
        "FontFamily": "Cairo",
        "FontHeader": "Cairo",
        "ProductDetail": "simpleType",
        "MainColor": null,
        "ShowChat": true,
        "ProductListLayout": "list",
        "StickyHeader": true
    },
    "TabBar": [
        {
            "layout": "home",
            "pos": 100,
            "icon": "assets/icons/tabs/icon-home.png",
            "key": "BNLYYUOLwg"
        },
        {
            "layout": "category",
            "parallaxImageRatio": 1.2,
            "fontFamily": "CupertinoIcons",
            "remapCategories": [
                {
                    "name": "القهوة المختصة",
                    "category": "gid://shopify/Collection/419572547796"
                },
                {
                    "parent": "gid://shopify/Collection/419572547796",
                    "name": "محاصيل القهوة المختصة",
                    "category": "gid://shopify/Collection/419652206804"
                },
                {
                    "parent": "gid://shopify/Collection/419652206804",
                    "name": "جميع المحاصيل",
                    "category": "gid://shopify/Collection/232555086016"
                },
                {
                    "parent": "gid://shopify/Collection/419572547796",
                    "name": "أكياس القهوة المختصة",
                    "category": "gid://shopify/Collection/183091626123"
                },
                {
                    "parent": "gid://shopify/Collection/419572547796",
                    "name": "معدات القهوة المختصة",
                    "category": "gid://shopify/Collection/186858897547"
                },
                {
                    "name": "الشاي",
                    "category": "gid://shopify/Collection/419572646100"
                },
                {
                    "parent": "gid://shopify/Collection/419572646100",
                    "name": "نوادر الشاي",
                    "category": "gid://shopify/Collection/406814490836"
                },
                {
                    "parent": "gid://shopify/Collection/419572646100",
                    "name": "الشاي الاسود",
                    "category": "gid://shopify/Collection/202796564637"
                },
                {
                    "parent": "gid://shopify/Collection/419572646100",
                    "name": "الشاي الأخضر",
                    "category": "gid://shopify/Collection/183091888267"
                },
                {
                    "parent": "gid://shopify/Collection/419572646100",
                    "name": "شاي الاعشاب",
                    "category": "gid://shopify/Collection/168103805067"
                },
                {
                    "parent": "gid://shopify/Collection/419572646100",
                    "name": "الشاي الازرق",
                    "category": "gid://shopify/Collection/411201503444"
                },
                {
                    "parent": "gid://shopify/Collection/419572646100",
                    "name": "شاي كرك",
                    "category": "gid://shopify/Collection/168103772299"
                },
                {
                    "parent": "gid://shopify/Collection/419572646100",
                    "name": "المتة",
                    "category": "gid://shopify/Collection/416513622228"
                },
                {
                    "parent": "gid://shopify/Collection/419572646100",
                    "name": "الشاي المختص",
                    "category": "gid://shopify/Collection/186856898699"
                },
                {
                    "name": "القهوة",
                    "category": "gid://shopify/Collection/419575267540"
                },
                {
                    "parent": "gid://shopify/Collection/419575267540",
                    "name": "القهوة العربية",
                    "category": "gid://shopify/Collection/419575562452"
                },
                {
                    "parent": "gid://shopify/Collection/419575562452",
                    "name": "القهوة العربية",
                    "category": "gid://shopify/Collection/166270763147"
                },
                {
                    "parent": "gid://shopify/Collection/419575562452",
                    "name": "منكهات القهوة",
                    "category": "gid://shopify/Collection/183091789963"
                },
                {
                    "parent": "gid://shopify/Collection/419575267540",
                    "name": "القهوة التركية",
                    "category": "gid://shopify/Collection/267421286592"
                },
                {
                    "parent": "gid://shopify/Collection/419575267540",
                    "name": "القهوة الفرنسية",
                    "category": "gid://shopify/Collection/267421188288"
                },
                {
                    "parent": "gid://shopify/Collection/419575267540",
                    "name": "حبوب القهوة ",
                    "category": "gid://shopify/Collection/244589756608"
                },
                {
                    "parent": "gid://shopify/Collection/419575267540",
                    "name": "قهوة سريعة التحضير",
                    "category": "gid://shopify/Collection/183091560587"
                },
                {
                    "parent": "gid://shopify/Collection/419575267540",
                    "name": "حبوب قهوة خضراء",
                    "category": "gid://shopify/Collection/183091527819"
                },
                {
                    "parent": "gid://shopify/Collection/419575267540",
                    "name": "قهوة خالية من الكافيين",
                    "category": "gid://shopify/Collection/239109472448"
                },
                {
                    "name": "التمور",
                    "category": "gid://shopify/Collection/166270697611"
                },
                {
                    "parent": "gid://shopify/Collection/166270697611",
                    "name": "التمور المكبوسة",
                    "category": "gid://shopify/Collection/419683467476"
                },
                {
                    "parent": "gid://shopify/Collection/166270697611",
                    "name": "التمور الناشفة",
                    "category": "gid://shopify/Collection/419715809492"
                },
                {
                    "parent": "gid://shopify/Collection/166270697611",
                    "name": "التمور المحشية والمغلفة",
                    "category": "gid://shopify/Collection/168103608459"
                },
                {
                    "parent": "gid://shopify/Collection/166270697611",
                    "name": "منتجات التمور",
                    "category": "gid://shopify/Collection/186857291915"
                },
                {
                    "name": "الطيب والبخور",
                    "category": "gid://shopify/Collection/419800449236"
                },
                {
                    "parent": "gid://shopify/Collection/419800449236",
                    "name": "البخور والمعمول",
                    "category": "gid://shopify/Collection/419218194644"
                },
                {
                    "parent": "gid://shopify/Collection/419800449236",
                    "name": "المباخر",
                    "category": "gid://shopify/Collection/409635979476"
                },
                {
                    "parent": "gid://shopify/Collection/419800449236",
                    "name": "الفحم والملاقط",
                    "category": "gid://shopify/Collection/240279945408"
                },
                {
                    "parent": "gid://shopify/Collection/419800449236",
                    "name": "المرشات والعطور",
                    "category": "gid://shopify/Collection/419800776916"
                },
                {
                    "name": "الدوة ومستلزمات الضيافة",
                    "category": "gid://shopify/Collection/232368308416"
                },
                {
                    "parent": "gid://shopify/Collection/232368308416",
                    "name": "الدوة",
                    "category": "gid://shopify/Collection/166446792843"
                },
                {
                    "parent": "gid://shopify/Collection/232368308416",
                    "name": "أطقم الضيافة",
                    "category": "gid://shopify/Collection/236967657664"
                },
                {
                    "parent": "gid://shopify/Collection/232368308416",
                    "name": "مطارات الشاي والقهوة",
                    "category": "gid://shopify/Collection/186857980043"
                },
                {
                    "parent": "gid://shopify/Collection/232368308416",
                    "name": "صواني التقديم",
                    "category": "gid://shopify/Collection/168104427659"
                },
                {
                    "parent": "gid://shopify/Collection/232368308416",
                    "name": "الأكواب",
                    "category": "gid://shopify/Collection/419577135316"
                },
                {
                    "parent": "gid://shopify/Collection/419577135316",
                    "name": "جميع الأكواب",
                    "category": "gid://shopify/Collection/186858045579"
                },
                {
                    "parent": "gid://shopify/Collection/419577135316",
                    "name": "أكواب ورقية وبلاستيكية",
                    "category": "gid://shopify/Collection/267518279872"
                },
                {
                    "parent": "gid://shopify/Collection/232368308416",
                    "name": "مستلزمات أخرى",
                    "category": "gid://shopify/Collection/419891970260"
                },
                {
                    "name": "أواني الشاي والقهوة",
                    "category": "gid://shopify/Collection/419577331924"
                },
                {
                    "parent": "gid://shopify/Collection/419577331924",
                    "name": "مطارات الشاي والقهوة",
                    "category": "gid://shopify/Collection/419868508372"
                },
                {
                    "parent": "gid://shopify/Collection/419577331924",
                    "name": "دلال القهوة",
                    "category": "gid://shopify/Collection/168104198283"
                },
                {
                    "parent": "gid://shopify/Collection/419577331924",
                    "name": "غواري الشاي",
                    "category": "gid://shopify/Collection/168106721419"
                },
                {
                    "parent": "gid://shopify/Collection/419577331924",
                    "name": "غواري الحليب والكرك",
                    "category": "gid://shopify/Collection/419868213460"
                },
                {
                    "parent": "gid://shopify/Collection/419577331924",
                    "name": "ركوة القهوة التركية",
                    "category": "gid://shopify/Collection/419869360340"
                },
                {
                    "parent": "gid://shopify/Collection/419577331924",
                    "name": "فناجيل واستكانات",
                    "category": "gid://shopify/Collection/168106852491"
                },
                {
                    "parent": "gid://shopify/Collection/419577331924",
                    "name": "تمريات وأواني أخرى",
                    "category": "gid://shopify/Collection/183093067915"
                },
                {
                    "name": "الاجهزة وملحقاتها",
                    "category": "gid://shopify/Collection/168103280779"
                },
                {
                    "parent": "gid://shopify/Collection/168103280779",
                    "name": "دلة القهوة الكهربائية",
                    "category": "gid://shopify/Collection/183093559435"
                },
                {
                    "parent": "gid://shopify/Collection/168103280779",
                    "name": "صانعات القهوة التركية",
                    "category": "gid://shopify/Collection/232372076736"
                },
                {
                    "parent": "gid://shopify/Collection/168103280779",
                    "name": "صانعات القهوة الامريكية",
                    "category": "gid://shopify/Collection/232378826944"
                },
                {
                    "parent": "gid://shopify/Collection/168103280779",
                    "name": "أجهزة القهوة المنزلية",
                    "category": "gid://shopify/Collection/409382977748"
                },
                {
                    "parent": "gid://shopify/Collection/168103280779",
                    "name": "صانعات القهوة الإيطالية",
                    "category": "gid://shopify/Collection/232372961472"
                },
                {
                    "parent": "gid://shopify/Collection/168103280779",
                    "name": "غلايات الماء",
                    "category": "gid://shopify/Collection/183093657739"
                },
                {
                    "parent": "gid://shopify/Collection/168103280779",
                    "name": "غلايات الشاي",
                    "category": "gid://shopify/Collection/409089966292"
                },
                {
                    "parent": "gid://shopify/Collection/168103280779",
                    "name": "غلايات الحليب",
                    "category": "gid://shopify/Collection/183093624971"
                },
                {
                    "parent": "gid://shopify/Collection/168103280779",
                    "name": "صانعات الثلج",
                    "category": "gid://shopify/Collection/402559631572"
                },
                {
                    "parent": "gid://shopify/Collection/168103280779",
                    "name": "مطاحن القهوة",
                    "category": "gid://shopify/Collection/232372666560"
                },
                {
                    "parent": "gid://shopify/Collection/168103280779",
                    "name": "أجهزة أخرى",
                    "category": "gid://shopify/Collection/402449957076"
                },
                {
                    "name": "الماء",
                    "category": "gid://shopify/Collection/419577954516"
                },
                {
                    "parent": "gid://shopify/Collection/419577954516",
                    "name": "الماء",
                    "category": "gid://shopify/Collection/271565783232"
                },
                {
                    "parent": "gid://shopify/Collection/419577954516",
                    "name": "الماء الغازي",
                    "category": "gid://shopify/Collection/277754478784"
                },
                {
                    "parent": "gid://shopify/Collection/419577954516",
                    "name": "ماء اللقاح والأعشاب",
                    "category": "gid://shopify/Collection/205918863517"
                },
                {
                    "name": "السفر والرحلات",
                    "category": "gid://shopify/Collection/235752685760"
                },
                {
                    "parent": "gid://shopify/Collection/235752685760",
                    "name": "أدوات السفر والرحلات",
                    "category": "gid://shopify/Collection/419861823700"
                },
                {
                    "parent": "gid://shopify/Collection/235752685760",
                    "name": "الحقائب",
                    "category": "gid://shopify/Collection/409457918164"
                },
                {
                    "parent": "gid://shopify/Collection/235752685760",
                    "name": "الشاي والقهوة",
                    "category": "gid://shopify/Collection/235752849600"
                },
                {
                    "parent": "gid://shopify/Collection/235752685760",
                    "name": "مطارات",
                    "category": "gid://shopify/Collection/408030970068"
                },
                {
                    "name": "عالم الكبسولات",
                    "category": "gid://shopify/Collection/419578118356"
                },
                {
                    "parent": "gid://shopify/Collection/419578118356",
                    "name": "أجهزة الكبسولات",
                    "category": "gid://shopify/Collection/183093526667"
                },
                {
                    "parent": "gid://shopify/Collection/419578118356",
                    "name": "كبسولات  دولتشي جوستو",
                    "category": "gid://shopify/Collection/183091658891"
                },
                {
                    "parent": "gid://shopify/Collection/419578118356",
                    "name": "كبسولات نسبريسو",
                    "category": "gid://shopify/Collection/183091724427"
                },
                {
                    "parent": "gid://shopify/Collection/419578118356",
                    "name": "كبسولات قهوة ايلي",
                    "category": "gid://shopify/Collection/183091757195"
                },
                {
                    "parent": "gid://shopify/Collection/419578118356",
                    "name": "كبسولات القهوة العربية ",
                    "category": "gid://shopify/Collection/241798447296"
                },
                {
                    "parent": "gid://shopify/Collection/419578118356",
                    "name": "ستاند الكبسولات",
                    "category": "gid://shopify/Collection/232378925248"
                },
                {
                    "name": "المشروبات وقوالب الثلج",
                    "category": "gid://shopify/Collection/398102298836"
                },
                {
                    "parent": "gid://shopify/Collection/398102298836",
                    "name": "المشروبات الباردة",
                    "category": "gid://shopify/Collection/419579035860"
                },
                {
                    "parent": "gid://shopify/Collection/419579035860",
                    "name": "القهوة الباردة",
                    "category": "gid://shopify/Collection/223061082269"
                },
                {
                    "parent": "gid://shopify/Collection/419579035860",
                    "name": "الشاي البارد",
                    "category": "gid://shopify/Collection/282221215936"
                },
                {
                    "parent": "gid://shopify/Collection/419579035860",
                    "name": "العصائر",
                    "category": "gid://shopify/Collection/412619833556"
                },
                {
                    "parent": "gid://shopify/Collection/398102298836",
                    "name": "الحليب",
                    "category": "gid://shopify/Collection/232547909824"
                },
                {
                    "parent": "gid://shopify/Collection/398102298836",
                    "name": "الشراب المركز - السيرب",
                    "category": "gid://shopify/Collection/216631607453"
                },
                {
                    "parent": "gid://shopify/Collection/398102298836",
                    "name": "قوالب الثلج",
                    "category": "gid://shopify/Collection/223064883357"
                },
                {
                    "parent": "gid://shopify/Collection/398102298836",
                    "name": "مشروبات صحية",
                    "category": "gid://shopify/Collection/419715973332"
                },
                {
                    "name": "الحلويات والدرابيل",
                    "category": "gid://shopify/Collection/279752933568"
                },
                {
                    "name": "عالم الزعفران",
                    "category": "gid://shopify/Collection/168103837835"
                },
                {
                    "name": "الفواكه والمكسرات",
                    "category": "gid://shopify/Collection/419865821396"
                },
                {
                    "parent": "gid://shopify/Collection/419865821396",
                    "name": "الفواكه و المكسرات",
                    "category": "gid://shopify/Collection/271240396992"
                },
                {
                    "parent": "gid://shopify/Collection/419865821396",
                    "name": "الفواكه المجففة",
                    "category": "gid://shopify/Collection/406050078932"
                },
                {
                    "name": "الحبوب والأعشاب",
                    "category": "gid://shopify/Collection/419579298004"
                },
                {
                    "parent": "gid://shopify/Collection/419579298004",
                    "name": "أعشاب",
                    "category": "gid://shopify/Collection/186807615627"
                },
                {
                    "name": "السكر وبدائل السكر",
                    "category": "gid://shopify/Collection/419579822292"
                },
                {
                    "parent": "gid://shopify/Collection/419579822292",
                    "name": "السكر",
                    "category": "gid://shopify/Collection/168103182475"
                },
                {
                    "parent": "gid://shopify/Collection/419579822292",
                    "name": "بدائل السكر",
                    "category": "gid://shopify/Collection/205919158429"
                },
                {
                    "parent": "gid://shopify/Collection/419652206804",
                    "name": "محمصة ستوك روم",
                    "category": "gid://shopify/Collection/201539354781"
                },
                {
                    "parent": "gid://shopify/Collection/419652206804",
                    "name": "محمصة جبلة",
                    "category": "gid://shopify/Collection/417633960148"
                },
                {
                    "parent": "gid://shopify/Collection/419652206804",
                    "name": "محمصة خطوة جمل",
                    "category": "gid://shopify/Collection/419685269716"
                },
                {
                    "parent": "gid://shopify/Collection/419652206804",
                    "name": "محمصة 48 ايست",
                    "category": "gid://shopify/Collection/220216721565"
                },
                {
                    "parent": "gid://shopify/Collection/419652206804",
                    "name": "محمصة رووتس",
                    "category": "gid://shopify/Collection/203118936221"
                },
                {
                    "parent": "gid://shopify/Collection/419652206804",
                    "name": "محمصة الفارس الأسود",
                    "category": "gid://shopify/Collection/419685368020"
                },
                {
                    "parent": "gid://shopify/Collection/419652206804",
                    "name": "محمصة راوي",
                    "category": "gid://shopify/Collection/201539223709"
                },
                {
                    "parent": "gid://shopify/Collection/419652206804",
                    "name": "محمصة كوفي تشويس",
                    "category": "gid://shopify/Collection/239383249088"
                },
                {
                    "parent": "gid://shopify/Collection/419652206804",
                    "name": "محمصة بيكولو ",
                    "category": "gid://shopify/Collection/407520116948"
                },
                {
                    "parent": "gid://shopify/Collection/419652206804",
                    "name": "محمصة سلالات",
                    "category": "gid://shopify/Collection/419685236948"
                },
                {
                    "parent": "gid://shopify/Collection/419652206804",
                    "name": "ماي هابت",
                    "category": "gid://shopify/Collection/277726003392"
                },
                {
                    "parent": "gid://shopify/Collection/419652206804",
                    "name": "محمصة كفة",
                    "category": "gid://shopify/Collection/419685302484"
                },
                {
                    "parent": "gid://shopify/Collection/419652206804",
                    "name": "قهوة مختصة ديكاف",
                    "category": "gid://shopify/Collection/399367307476"
                },
                {
                    "parent": "gid://shopify/Collection/186858897547",
                    "name": "الحقائب",
                    "category": "gid://shopify/Collection/417541390548"
                },
                {
                    "parent": "gid://shopify/Collection/186858897547",
                    "name": "معدات القهوة الاسبريسو",
                    "category": "gid://shopify/Collection/419652468948"
                },
                {
                    "parent": "gid://shopify/Collection/419652468948",
                    "name": "أجهزة الاسبرسو",
                    "category": "gid://shopify/Collection/235760025792"
                },
                {
                    "parent": "gid://shopify/Collection/419652468948",
                    "name": "بورتا فلتر",
                    "category": "gid://shopify/Collection/419867984084"
                },
                {
                    "parent": "gid://shopify/Collection/419652468948",
                    "name": "أباريق التبخير",
                    "category": "gid://shopify/Collection/419868016852"
                },
                {
                    "parent": "gid://shopify/Collection/419652468948",
                    "name": "المكابس و الموزعات",
                    "category": "gid://shopify/Collection/419867951316"
                },
                {
                    "parent": "gid://shopify/Collection/419652468948",
                    "name": "أدوات أخرى",
                    "category": "gid://shopify/Collection/235759567040"
                },
                {
                    "parent": "gid://shopify/Collection/186858897547",
                    "name": "معدات القهوة الفلتر",
                    "category": "gid://shopify/Collection/419652829396"
                },
                {
                    "parent": "gid://shopify/Collection/419652829396",
                    "name": "فرنش بريس",
                    "category": "gid://shopify/Collection/232378564800"
                },
                {
                    "parent": "gid://shopify/Collection/419652829396",
                    "name": "أجهزة تحضير القهوة",
                    "category": "gid://shopify/Collection/235759960256"
                },
                {
                    "parent": "gid://shopify/Collection/419652829396",
                    "name": "أدوات تحضير القهوة",
                    "category": "gid://shopify/Collection/409607504084"
                },
                {
                    "parent": "gid://shopify/Collection/419652829396",
                    "name": "الميزان",
                    "category": "gid://shopify/Collection/239167340736"
                },
                {
                    "parent": "gid://shopify/Collection/419652829396",
                    "name": "أقماع",
                    "category": "gid://shopify/Collection/239167439040"
                },
                {
                    "parent": "gid://shopify/Collection/419652829396",
                    "name": "السيرفر",
                    "category": "gid://shopify/Collection/239167275200"
                },
                {
                    "parent": "gid://shopify/Collection/419652829396",
                    "name": "الغلايات",
                    "category": "gid://shopify/Collection/239167504576"
                },
                {
                    "parent": "gid://shopify/Collection/419652829396",
                    "name": "الفلاتر",
                    "category": "gid://shopify/Collection/238376059072"
                },
                {
                    "parent": "gid://shopify/Collection/419652829396",
                    "name": "تحضير القهوة الباردة",
                    "category": "gid://shopify/Collection/235762155712"
                },
                {
                    "parent": "gid://shopify/Collection/186858897547",
                    "name": "المطاحن",
                    "category": "gid://shopify/Collection/235759993024"
                },
                {
                    "parent": "gid://shopify/Collection/235759993024",
                    "name": "المطاحن اليدوية",
                    "category": "gid://shopify/Collection/419712172244"
                },
                {
                    "parent": "gid://shopify/Collection/235759993024",
                    "name": "المطاحن الكهربائية",
                    "category": "gid://shopify/Collection/419716399316"
                },
                {
                    "parent": "gid://shopify/Collection/186858897547",
                    "name": "معدات التنظيف",
                    "category": "gid://shopify/Collection/275374440640"
                },
                {
                    "parent": "gid://shopify/Collection/186858897547",
                    "name": "حافظات القهوة",
                    "category": "gid://shopify/Collection/262495174848"
                },
                {
                    "parent": "gid://shopify/Collection/186858897547",
                    "name": "الأكواب",
                    "category": "gid://shopify/Collection/419653091540"
                },
                {
                    "parent": "gid://shopify/Collection/419653091540",
                    "name": "الأكواب",
                    "category": "gid://shopify/Collection/277756444864"
                },
                {
                    "parent": "gid://shopify/Collection/419653091540",
                    "name": "الاكواب الحرارية",
                    "category": "gid://shopify/Collection/419790618836"
                },
                {
                    "parent": "gid://shopify/Collection/186858897547",
                    "name": "قوالب الثلج",
                    "category": "gid://shopify/Collection/419800088788"
                },
                {
                    "parent": "gid://shopify/Collection/419572547796",
                    "name": "الشاي المختص",
                    "category": "gid://shopify/Collection/419870867668"
                },
                {
                    "parent": "gid://shopify/Collection/419870867668",
                    "name": "الشاي المختص",
                    "category": "gid://shopify/Collection/419870933204"
                },
                {
                    "parent": "gid://shopify/Collection/419870867668",
                    "name": "أدوات الشاي المختص",
                    "category": "gid://shopify/Collection/419870965972"
                }
            ],
            "fullscreen": false,
            "pos": 200,
            "showOriginalColor": false,
            "parallax": false,
            "defaultTab": false,
            "icon": "rectangle_grid_1x2",
            "categoryLayout": "card",
            "key": "KZxNZGEudC"
        },
        {
            "layout": "wishlist",
            "fontFamily": "CupertinoIcons",
            "fullscreen": false,
            "pos": 300,
            "showOriginalColor": false,
            "defaultTab": false,
            "icon": "heart",
            "key": "bKrtKKqZFq"
        },
        {
            "layout": "profile",
            "settings": [
                "wishlist",
                "notifications",
                "language",
                "currencies",
                "darkTheme",
                "order",
                "rating",
                "biometrics"
            ],
            "fullscreen": false,
            "pos": 400,
            "showOriginalColor": false,
            "background": "https://i.imgur.com/qkmqUSX.jpeg",
            "defaultTab": false,
            "showBackground": true,
            "icon": "assets/icons/tabs/icon-user.png",
            "drawerIcon": {
                "fontFamily": "MaterialIcons",
                "icon": "menu_rounded"
            },
            "key": "RfZXFSParL"
        }
    ],
    "Drawer": {
        "filter": 0,
        "logoConfig": {
            "marginRight": 0,
            "useMaxWidth": true,
            "width": 50,
            "boxFit": "cover",
            "marginBottom": 10,
            "marginTop": 60,
            "height": 106,
            "marginLeft": 5
        },
        "enable": true,
        "logo": "https://kaif.co/cdn/shop/files/finalfinal_74cad1e7-e82f-4eda-8208-0703f0b2420b.png",
        "subDrawerItem": {},
        "safeArea": false,
        "items": [
            {
                "show": true,
                "type": "home"
            },
            {
                "show": false,
                "type": "blog"
            },
            {
                "show": true,
                "type": "categories"
            },
            {
                "show": true,
                "type": "cart"
            },
            {
                "show": true,
                "type": "profile"
            },
            {
                "show": true,
                "type": "login"
            },
            {
                "show": false,
                "type": "category"
            }
        ],
        "key": "mQcHiYqudm"
    },
    "AppBar": {}
}